{
	"info": {
		"_postman_id": "07b53fd3-79b4-4406-bf39-240be63a3fb7",
		"name": "api product",
		"schema": "https://schema.getpostman.com/json/collection/v2.1.0/collection.json"
	},
	"item": [
		{
			"name": "Get products",
			"protocolProfileBehavior": {
				"disableBodyPruning": true
			},
			"request": {
				"method": "GET",
				"header": [],
				"body": {
					"mode": "raw",
					"raw": ""
				},
				"url": {
					"raw": "localhost:8080/api/productos/listar",
					"host": [
						"localhost"
					],
					"port": "8080",
					"path": [
						"api",
						"productos",
						"listar"
					]
				}
			},
			"response": [
				{
					"name": "Default",
					"originalRequest": {
						"method": "GET",
						"header": [],
						"url": {
							"raw": "{{url}}/",
							"host": [
								"{{url}}"
							],
							"path": [
								""
							]
						}
					},
					"code": 200,
					"_postman_previewlanguage": "Text",
					"header": [],
					"cookie": [],
					"body": "{ test: \"test\"}"
				}
			]
		},
		{
			"name": "Get product by id",
			"protocolProfileBehavior": {
				"disableBodyPruning": true
			},
			"request": {
				"method": "GET",
				"header": [],
				"body": {
					"mode": "raw",
					"raw": ""
				},
				"url": {
					"raw": "localhost:8080/api/productos/listar/1",
					"host": [
						"localhost"
					],
					"port": "8080",
					"path": [
						"api",
						"productos",
						"listar",
						"1"
					]
				}
			},
			"response": [
				{
					"name": "Default",
					"originalRequest": {
						"method": "GET",
						"header": [],
						"url": {
							"raw": "{{url}}/",
							"host": [
								"{{url}}"
							],
							"path": [
								""
							]
						}
					},
					"code": 200,
					"_postman_previewlanguage": "Text",
					"header": [],
					"cookie": [],
					"body": "{ test: \"test\"}"
				}
			]
		},
		{
			"name": "Create a product",
			"request": {
				"method": "POST",
				"header": [],
				"body": {
					"mode": "raw",
					"raw": "{\n    \"title\": \"title\",\n    \"price\": 10,\n    \"thumbnail\": \"url\"\n}",
					"options": {
						"raw": {
							"language": "json"
						}
					}
				},
				"url": {
					"raw": "localhost:8080/api/productos/guardar",
					"host": [
						"localhost"
					],
					"port": "8080",
					"path": [
						"api",
						"productos",
						"guardar"
					]
				}
			},
			"response": [
				{
					"name": "Default",
					"originalRequest": {
						"method": "GET",
						"header": [],
						"url": {
							"raw": "{{url}}/",
							"host": [
								"{{url}}"
							],
							"path": [
								""
							]
						}
					},
					"code": 200,
					"_postman_previewlanguage": "Text",
					"header": [],
					"cookie": [],
					"body": "{ test: \"test\"}"
				}
			]
		},
		{
			"name": "update product",
			"request": {
				"method": "PUT",
				"header": [],
				"body": {
					"mode": "raw",
					"raw": "{\n    \"title\": \"Pepe\",\n    \"price\": 10,\n    \"thumbnail\": \"PPEPE\"\n}",
					"options": {
						"raw": {
							"language": "json"
						}
					}
				},
				"url": {
					"raw": "localhost:8080/api/productos/actualizar/10000",
					"host": [
						"localhost"
					],
					"port": "8080",
					"path": [
						"api",
						"productos",
						"actualizar",
						"10000"
					]
				}
			},
			"response": [
				{
					"name": "Default",
					"originalRequest": {
						"method": "GET",
						"header": [],
						"url": {
							"raw": "{{url}}/",
							"host": [
								"{{url}}"
							],
							"path": [
								""
							]
						}
					},
					"code": 200,
					"_postman_previewlanguage": "Text",
					"header": [],
					"cookie": [],
					"body": "{ test: \"test\"}"
				}
			]
		},
		{
			"name": "delete product by id",
			"request": {
				"method": "DELETE",
				"header": [],
				"body": {
					"mode": "raw",
					"raw": "{\n    \"title\": \"test\",\n    \"price\": 10,\n    \"thumbnail\": \"url a foto\"\n}",
					"options": {
						"raw": {
							"language": "json"
						}
					}
				},
				"url": {
					"raw": "localhost:8080/api/productos/borrar/1",
					"host": [
						"localhost"
					],
					"port": "8080",
					"path": [
						"api",
						"productos",
						"borrar",
						"1"
					]
				}
			},
			"response": [
				{
					"name": "Default",
					"originalRequest": {
						"method": "GET",
						"header": [],
						"url": {
							"raw": "{{url}}/",
							"host": [
								"{{url}}"
							],
							"path": [
								""
							]
						}
					},
					"code": 200,
					"_postman_previewlanguage": "Text",
					"header": [],
					"cookie": [],
					"body": "{ test: \"test\"}"
				}
			]
		},
		{
			"name": "get chat history",
			"protocolProfileBehavior": {
				"disableBodyPruning": true
			},
			"request": {
				"method": "GET",
				"header": [],
				"body": {
					"mode": "raw",
					"raw": ""
				},
				"url": {
					"raw": "localhost:8080/api/chat",
					"host": [
						"localhost"
					],
					"port": "8080",
					"path": [
						"api",
						"chat"
					]
				}
			},
			"response": [
				{
					"name": "Default",
					"originalRequest": {
						"method": "GET",
						"header": [],
						"url": {
							"raw": "{{url}}/",
							"host": [
								"{{url}}"
							],
							"path": [
								""
							]
						}
					},
					"code": 200,
					"_postman_previewlanguage": "Text",
					"header": [],
					"cookie": [],
					"body": "{ test: \"test\"}"
				}
			]
		}
	]
}